﻿Key,Data
English Name,"OTHER SHOTS
Backhand Drop Shot"
French Name,"AUTRES COUPS
Amorti revers"
Spanish Name,"OTROS GOLPES
Reves derecha"
English Overview,"The backhand drop shot is normally executed when a player notices their opponent is deep behind the baseline or is off balance.
*Ball height for drop shot may very"
French Overview,"L'amorti est généralement exécuté lorsqu'un joueur s'aperçoit que son adversaire se trouve loin derrière la ligne de fond de court ou a perdu l'équilibre
*La trajectoire de la balle pour l'amorti peut varier"
Spanish Overciew,"El drop shot de revés se ejecuta normalmente cuando un jugador se da cuenta que su oponente esta profundo o detrás de la línea de base yr fuera de balance
*La altura de la pelota para el drop shot puede variar"
English Tips,"*Balance of weight on the balls of your feet
*Focus on the ball, (look for Brand name on ball)
*Early preparation of racquet and feet position
*Low net clearance
*Always follow through to assist ball carry"
French Tips,"*Poids du corps sur les avant-pieds
*Concentration sur la balle, (essayez de lire le nom de la marque inscrit sur la balle)
*Préparation précoce de la raquette et du positionnement des pieds
*Peu de marge par rapport au filet
*Toujours accompagner le mouvement pour un meilleur toucher de balle"
Spanish Tips,"*Balance del peso sobre las puntas de los pies
*Concéntrese en la pelota, (mirar la marca en la pelota) 
*Preparación anticipada de la raqueta y posición de los pies 
*Espacio neta bajo 
*Siempre seguir el golpe ayudando a pasar la pelota"

Pause Time,Node 1,Node 2,Grip 1, Grip 2,Grip 3,English 1,French 1,Spanish 1,English 2,French 2,Spanish 2
0.05,"RacketBase","RightFoot","Continental",,,"Establish Grip
1. Continental","Prise de raquette
1. Continental","Empuñadura
1. Continental","Ready position hands out in front 60 % of weight on the balls of your feet","Position d'attente avec les mains vers l'avant et 60 % du poids du corps sur les avant-pieds","Posición lista de las manos hacia delante 60% del peso en la punta de los pies"
0.192,"RightFoot","LeftFoot",,,,"Split Step","Jambes fléchies","Paso hacia el costado",,,
0.254,"LeftFoot",,,,,"Step out – Left leg closest to ball","Appuis ouverts - Jambe gauche la plus proche de la balle","Paso adelante - Pierna izquierda más cerca de la pelota",,,
0.337,"RacketTop","RightFoot",,,,"Short back swing","Légère préparation","Swing corto","Step down – Right foot forward transferring body weight forward","Appuis fermés - Pied droit devant puis transfert du poids du corps","Paso abajo - Pie derecho adelante y transferencia el peso del cuerpo hacia la pelota"
0.397,"Head","RacketTop",,,,"Players head looking down to the side behind the ball ready for contact","Joueur regardant latéralement vers le bas derrière la balle prêt à frapper","El jugador mira la pelota con la cabeza hacia abajo lista para el contacto","Racquet face opens to find ball","Tamis de la raquette ouvert pour frapper la balle","Abrir la cara de la raqueta para golpear la pelota"
0.419,"RacketBase","Ball",,,,"Racquet hand lose on grip to absorb power to take pace off ball","Main relâchée sur le manche de la raquette pour absorber et amortir la puissance de la balle","La mano de la raqueta dejà de hagarrar del grip para absorber la energía de la pelota","Racquet face is open brushing gentle under the ball out in front of right foot","Tamis de la raquette ouvert passant sous la balle pour la brosser légèrement devant le pied droit","Poner la cara de la raqueta abierta cepillando suave debajo de la pelota delante del pie derecho"
0.476,"Racket","LeftFoot",,,,"Racquet face continues the line of the ball to target","Le tamis de la raquette poursuit sa course accompagnant la balle vers la cible","La cara de la raqueta sigue la línea de la pelota marcando el destino","Back leg stabilise – Left leg keeps behind and recover","Stabilisation jambe arrière - La jambe gauche reste en arrière et se replace","Pierna de atras vuelve para estabilizar - pierna izquierda se mantien atrás y recupera posicion"
0.746,"RightFoot",,,,,"Cross Back – recovering cross over leg or side step","Pas chassés arrière - Replacement en pas chassés ou pas de côté","Paso atras - Recuperar el paso dado (delante o lateral)",,,
0.843,"RightFoot","Racket",,,,"Split Step – shoulder width stance recovered and back in ready position","Position fléchie sur les jambes - Largeur des épaules rétablie et retour à la position d'attente","Paso dividido – La postura del hombre vuelve a recuperarse y de nuevo en posición de espera",,,
