﻿Key,Data
English Name,"BACKHAND
Single Handed Flat"
French Name,"REVERS
A une main à plat"
Spanish Name,"REVÉS
Una mano plano"
English Overview,"The single handed flat back hand is used as an attacking shot when feeling confident more power higher risk to flatten out the ball keeping the bounce lower.
*Ball height for ground strokes at hip to shoulder height"
French Overview,"Le revers à une main frappé à plat est utilisé comme coup d'attaque lorsque le joueur a suffisamment de confiance en son jeu pour délivrer un coup puissant avec peu de marge par rapport au filet et qui aura tendance à s'écraser au sol
*La hauteur de frappe pour les coups de fond de court se situe entre la hanche et l'épaule"
Spanish Overciew,"El reves plano con una mano es usado como un tiro de ataque cuando el jugador se siente seguro y con alto poder de riesgo  conservando la pelota con un rebote bajo
*La altura de la pelota para los golpes es a la altura entre la cadera y los hombros"
English Tips,"*Focus on the ball, (look for Brand name on ball)
*Early preparation of racquet and feet position
*Have a plan on how to set up a point
*Lower net clearance
*Going for a winner"
French Tips,"*Concentration sur la balle (essayez de lire le nom de la marque inscrit sur la balle)
*Préparation précoce de la raquette et du positionnement des pieds
*Ayez une stratégie en tête sur la conduite du point à mener
*Marge par rapport au filet plus réduite
*Coup joué pour gagner le point"
Spanish Tips,"*Concéntrese en la pelota, (mirar la marca en la pelota) 
*Preparación anticipada de la raqueta y la posición de los pies 
*Tener un plan para establecer un punto de encuantro
*Espacio neta bajo
*Para ganar"

Pause Time,Node 1,Node 2,Grip 1, Grip 2,Grip 3,English 1,French 1,Spanish 1,English 2,French 2,Spanish 2
0.05,"RacketBase","RightFoot","EasternBackhand",,,"Establish Grip
1. Eastern","Prise de raquette
1. Eastern","Empuñadura
1. Eastern","Feet always moving in ready","Pieds toujours en mouvement prêts à démarrer","Pies siempre moviéndose y listos"
0.25,"LeftHand","LeftKnee",,,,"Left hand pulls racquet arm turning shoulders","Orientation de la raquette avec la main gauche et pivotement des épaules","La mano izquierda hagarra el brazo de la raqueta  y ayuda a rotar los hombros ","Step out – Left leg closest to ball","Appuis ouverts - Jambe gauche la plus proche de la balle","Paso adelante – Pierna izquierda más cerca de la pelota"
0.328,"RightShoulder","RacketTop",,,,"Right shoulder pointing at target","Épaule droite pointant vers la cible","Hombro derecho apunta la direccion de la pelota","Keep racquet head up","Tête de raquette maintenue vers le haut","Mantenga la cabeza de la raqueta hacia arriba"
0.354,"LeftHand","RightFoot",,,,"Open left hand to commence swing","Ouvrez la main gauche pour commencer le mouvement","Abrir la mano izquierda para iniciar el swing","Step with right foot forward","Avancez le pied droit","Paso con el pie derecho adelante"
0.409,"RightShoulder",,,,,"Turn right shoulder dropping racquet head creating momentum","Faites pivoter votre épaule droite tout en laissant tomber la tête de raquette afin de donner de l'élan au geste","Gire el hombro derecho, cabeza de la raqueta hacia abajo para dar un impulso",,,
0.417,"Head","Racket",,,,"Players head looking down over the ball ready for contact","Joueur avec le regard orienté vers le bas en direction de la balle, prêt à frapper","El Jugador mira la pelota con la cabeza hacia abajo lista para el contacto","Racquet head at the same height as net in ready to hit the back of ball with full face of strings","Tête de raquette à la même hauteur que le filet prête à frapper le dos de la balle avec le tamis à plat","Cabeza de la raqueta a la misma altura de la red y lista para golpear la pelota con todas las cuerdas en la parte de atras de la misma"
0.433,"Racket",,,,,"Racquet face meets ball out in front of right foot","Le tamis de la raquette frappe la balle devant le pied droit","La cara de la raqueta golpea la pelota adelante del pie derecho",,,
0.45,"Racket",,,,,"Racquet continues the line of the ball as right shoulders continue to rotate, finishing with racquet head pointing up at 90 degrees to your arm","La raquette accompagne la frappe de balle tandis que les épaules continuent de pivoter et la tête de raquette termine sa course en formant un angle de 90 degrés par rapport au bras","La rauqeta sigue la linea de la pelota como tambien los hombres continuan girando. Terminando con la cabeza de la raqueta a 90 grados con su brazo",,,
0.513,"LeftKnee",,,,,"Bring leg through – Left leg follow through to brake and recover","Passage de la jambe - La jambe gauche est transférée vers l'avant pour freiner et reprendre appui","Llevar la pierna a través de - Pierna izquierda sigue adelante para frenar y recuperar",,,
0.609,"RightFoot",,,,,"Cross Back – Recovering cross over leg or side step","Pas chassés arrière - Replacement en pas chassés ou pas de côté","Paso atras - Recuperación del paso dado adelante o lateral.",,,
0.776,"RightKnee","Racket",,,,"Split Step – Shoulder width stance recovered and ready","Position fléchie sur les jambes - Largeur des épaules rétablie et retour à la position d'attente","Paso dividido – Recuperacion de postura de hombros y estar listo",,,
