﻿Key,Data
English Name,"EXTRA
Jumping Double Handed Backhand"
French Name,"EXTRA
Revers à deux mains sauté"
Spanish Name,"EXTRA
Salto de reves con dos manos"
English Overview,"The most common backhand today is the two handed backhand grip as it is easier for beginners using two hands. In many occasions it can create more power. Double handed is characterized by an Eastern forehand position for the left hand a Continental grip for the right hand (right handed players).
*Ball height for ground strokes are between shoulder and hip"
French Overview,"Le revers le plus couramment utilisé aujourd'hui est le revers à deux mains car il est plus facile pour les débutants d'utiliser les deux mains. Dans beaucoup de phases de jeu, il permet d'avoir plus de puissance.  Le revers à deux mains se caractérise par une prise de raquette Eastern pour la main gauche et Continentale pour la main droite (joueurs droitiers).
*La hauteur de frappe pour les coups de fond de court se situe entre l'épaule et la hanche "
Spanish Overciew,"El revés más común hoy en día es la empuñadura de revés a dos manos, ya que es más fácil para los principiantes . En muchas ocasiones llega a crear más energía. Doble mano se caracteriza por la posición del golpe derecho con un grip del Este para la mano izquierda un grip Continental para la mano derecha (jugadores diestros)
*La altura de la pelota en movimientos es entre el hombro y la cadera"
English Tips,"*Focus on the ball, (look for Brand name on ball)
*Early preparation of racquet and feet position
*Have a plan on how to set up the shot
*High net clearance
*Bend knees to drive up and forward to the ball"
French Tips,"*Concentration sur la balle, (essayez de lire le nom de la marque inscrit sur la balle)
*Préparation précoce de la raquette et du positionnement des pieds
*Ayez une stratégie en tête lors de la préparation du coup
*Gardez de la marge par rapport au filet
*Genoux fléchis pour enclencher l'impulsion vers le haut et vers l'avant en direction de la balle"
Spanish Tips,"*Concéntrese en la pelota, (mirar la marca en la pelota) 
*Prepara con anticipacion la raqueta (swing) y la posicion de los pies
*Tener un plan para realize el golpe
*Alta liquidación neta 
*Doble las rodillas para conducir y transmitir la pelota"

Pause Time,Node 1,Node 2,Grip 1, Grip 2,Grip 3,English 1,French 1,Spanish 1,English 2,French 2,Spanish 2
0.05,"RacketBase","RightFoot","TwoHandedBackhand",,,"Establish Grip
1. Continental Right Hand – Eastern Left Hand","Prise de raquette
1. Main droite Continental - Main gauche Eastern","Empuñadura
1.  Mano derecha Continental - Mano izquierda Eastern","Feet always moving in ready","Pieds toujours en mouvement prêts à démarrer","Pies siempre moviéndose y listos "
0.204,"Racket","LeftFoot",,,,"Take racquet head back with racquet head set at hip/shoulder height","Positionnez la tête de raquette vers l'arrière au niveau de la ligne des épaules/hanche","Llevar la raqueta hacia atrás poniendo la cabeza de la raqueta entre la cadera /altura del hombro","Step out – Left leg closest to ball","Appuis ouverts - Jambe gauche la plus proche de la balle","Paso adelante - Pierna izquierda más cerca de la pelota"
0.323,"RightShoulder","RightFoot",,,,"Right shoulder pointing at target","Épaule droite pointant vers la cible","Hombro derecho apuntando al destino de la pelota","Step forward with right foot","Faites un pas en avant avec le pied droit","Paso adelante con el pie derecho"
0.303,"RightShoulder",,,,,"Turn right shoulder as you drop racquet head creating momentum down and forward","Faites pivoter votre épaule droite tout en laissant tomber la tête de raquette afin de donner de l'élan au geste vers le bas et vers l'avant","Gire el hombro derecho como si la raqueta se cayera dando un impulso hacia abajo y adelante",,,
0.344,"Head","RightFoot",,,,"Players head looking down over ball ready for contact","Joueur avec le regard orienté vers la balle, prêt pour la frappe","El jugador mira la pelota con la cabeza hacia abajo listo para el contacto","Step down – Right foot forward with knee bend driving up to ball","Appuis fermés - Pied droit vers l'avant et genou fléchi avec impulsion verticale vers la balle","Paso abajo - Pie derecho mueve hacia adelante con flexión de la rodilla subiendo hacia la pelota"
0.374,"Racket","LeftKnee",,,,"Racquet head set at net or shoulder height prior to contact, both ball and racquet move up together, full strings hitting on back of ball to enhance all power of strings","La tête de raquette se trouve à hauteur de filet ou d'épaule avant la frappe. La raquette opère un mouvement vers le haut qui est transmis à la balle au moment de la frappe. Le dos de la balle est frappé par le tamis à plat afin qu'un maximum de cordes entrent en contact avec elle et lui délivre beaucoup de puissance","La cabeza de la raqueta se pone a la altura de la red o los hombres antes del contacto con la pelota. Tanto la pelota como la raqueta se mueven juntos, Todas las cuerdas golpean la parte de abajo de la pelota para tener mayor fuerza de las cuerdas","Back leg prepares to drive weight forward to right leg as front leg gears to drive up","La jambe arrière prépare le transfert du poids du corps vers l'avant sur la jambe droite tandis que la jambe avant enclenche l'impulsion verticale","Pierna de atras se prepara para mover el peso del cuerpo hacia adelante en la pierna derecha, como engranajes de las patas de adelante para hacer subir"
0.407,"Racket",,,,,"Racquet face meets ball out in front of right foot","Le tamis de la raquette frappe la balle devant le pied droit","La cara de la raqueta golpea la pelota delante del pie derecho",,,
0.42,"Racket","RightHand",,,,"Racquet continues the line of the ball as right shoulders continue to rotate","La raquette poursuit son accompagnement dans la direction de la frappe de balle tandis que l'épaule droite continue de pivoter","La raqueta sigue la línea de la pelota hombro derecho continúan girando","Breaking wrist and elbows on contact finishing with racquet head over right shoulder","Une pronation s'opère au niveau du poignet et des coudes lors de l'impact pour finir le mouvement avec la tête de raquette au-dessus de l'épaule droite","Las muñecas se doblan y los codos terminan en contacto con la raqueta por encima del hombro derecho"
0.519,"LeftKnee",,,,,"Bring leg through – Left leg follows through to brake and recover","Passage de la jambe - La jambe gauche est transférée vers l'avant pour freiner et reprendre appui","Llevar la pierna a través de – Pierna izquierda sigue adelante para frenar y recuperar",,,
0.618,"LeftKnee",,,,,"Cross Back – Recovering cross over leg or side step","Pas chassés arrière - Replacement en pas chassés ou pas de côté","Paso atras – Recuperar el paso dado (hacia adelante o al lado)",,,
0.975,"RightFoot","Racket",,,,"Split Step – Shoulder width stance recovered and ready","Position fléchie sur les jambes - Largeur des épaules rétablie et retour à la position d'attente","Paso dividido – La postura de los hombros vuelve a recuperarce y de nuevo en posicion de espera",,,
