﻿Key,Data
English Name,"FOREHAND
Return Of Serve"
French Name,"COUP DROIT
Retour de service"
Spanish Name,"DERECHA
Devolucion de servicio"
English Overview,"The forehand return of serve is all about sighting the ball early, slowly moving forward and laterally as the opponent commences the ball toss. This gets your weight going to meet the ball early, before the ball gets too high, pushing you off balance. Short and sharp back swing keeps you early on contact
*Ball height for ground strokes are between knee and hip"
French Overview,"Le secret du retour de service en coup droit est l'anticipation de la trajectoire, en se déplaçant légèrement vers l'avant et latéralement lorsque l'adversaire commence son lancer de balle. Avec votre poids du corps vers l'avant, vous pourrez ainsi frapper la balle précocement, avant qu'elle ne soit trop haute et vous déséquilibre. Une préparation courte et rapide vous permet de frapper la balle précocement
*La hauteur de frappe pour les coups de fond de court se situe entre le genoux et la hanche."
Spanish Overciew,"La devolución de derecha en el servicio es encontrar la pelota temprano, moverse lentamente hacia adelante y los laterals cuando el oponente comienza el lanzamiento de la pelota. Esto hace que uno pueda encontar la pelota temprano antes de que esta se eleve demasiado, a perder el equilibrio. Swing corto hace que tenga un contacto rapido con la pelota
*La altura de la pelota en movimiento es entre la rodilla y la cadera"
English Tips,"*Focus on the ball, (look for Brand name on ball)
*Early preparation of racquet and feet position
*Decide where you are going to hit ball before opponent serves
*High net clearance
*Get ball back in play, putting pressure immediately on opponent"
French Tips,"*Concentration sur la balle, (essayez de lire le nom de la marque inscrit sur la balle)
*Préparation précoce de la raquette et du positionnement des pieds
*Décidez où vous allez frapper la balle avant que l'adversaire ne serve
*Gardez de la marge par rapport au filet
*Remettez la balle en jeu et faites immédiatement pression sur l'adversaire"
Spanish Tips,"*Concéntrese en la bola, (mirar la marca en la pelota)
*Preparar con anticipacion la raqueta (swing) y la postura de los pies 
*Decidir donde uno va a golpear la pelota antes que el oponente sirva 
*Espacio neta alto
*Dejar la pelota en juego, presionando inmediatamente oponente "

Pause Time,Node 1,Node 2,Grip 1, Grip 2,Grip 3,English 1,French 1,Spanish 1,English 2,French 2,Spanish 2
0.05,"RightHand","RightFoot","SemiWesternForehand","EasternForehand","WesternForehand","Establish Grip
1. Semi Western
2. Eastern
3. Western","Prise de raquette
1. Semi Western
2. Eastern
3. Western","Empuñadura
1. Semi Western
2. Eastern
3. Western","Ready position, bent knees 60% of weight on balls of feet","Position d'attente, genoux fléchis avec 60 % du poids du corps sur les avant-pieds","Posición Lista, rodillas dobladas 60% del peso de enlos pies"
0.282,"LeftHand","LeftShoulder",,,,"Left hand pushes racquet arm turning shoulders","Orientation de la raquette avec la main gauche et pivotement des épaules","La mano izquierda lleva hacia atras la raqueta girando los hombros",,,
0.308,"LeftShoulder",,,,,"Left shoulder pointing at target","Épaule gauche pointant vers la cible","El hombro izquierdo apunta el destino de la pelota",,,
0.415,"Racket","LeftFoot",,,,"Short back swing set still for contact","Courte préparation arrière positionnée pour la frappe","Swing corto se prepara tambien para el contacto con la pelota","Left foot steps forward transferring body weight through ball","Pied gauche vers l'avant avec transfert du poids du corps dans la balle","El pie izquierdo se adelanta llevando el peso del cuerpo hacia la pelota"
0.44,"Racket","Head",,,,"Racquet head lower than ball prior to contact, both ball and racquet move up together, (on the rise) strings brush up on back of ball giving topspin","La tête de raquette se trouve au-dessous du niveau de la balle avant la frappe. La raquette opère un mouvement vers le haut qui est transmis à la balle au moment de la frappe. Les cordes brossent le dos de la balle lui donnant un effet lifté","La cabeza de la raqueta va por debajo de la pelota antes del golpe. Tanto la pelota como la raqueta se mueven juntos, (en aumento), las cuerdas cepillan la parte de atras de la pelota dando efecto de topspin","Players head looking down and over the ball ready for contact","Joueur avec le regard orienté vers le bas en direction de la balle, prêt à frapper","El jugador mira la pelota con la cabeza hacia abajo listo para el contacto"
0.473,"Ball",,,,,"Racquet face meets ball out in front of left foot","Le tamis de la raquette frappe la balle devant le pied gauche","La raqueta impacta la pelota delante del pie izquierdo",,,
0.511,"Racket","RightElbow",,,,"Racquet continues the line of the ball as right shoulders continue to rotate, with elbow finishing, pointing at target","La raquette accompagne la frappe de balle tandis que les épaules continuent de pivoter avec le coude pointant vers la cible en fin de mouvement","La raqueta sigue la línea de la pelota y el hombro derecho continúan girando,terminando y flexionando el codo, apuntando el destino de la pelota",,,
0.799,"LeftFoot",,,,,"Cross Back - recovering cross over leg or side step","Pas chassés arrière - Replacement en pas chassés ou pas de côté","Paso atras -Rrecuperar el paso dado (delante o al lateral)",,,
0.977,"RightFoot","Racket",,,,"Split Step - shoulder width stance recovered and ready","Position fléchie sur les jambes - Largeur des épaules rétablie et retour à la position d'attente","Paso dividido – La postura de los hombros vuelve a recuperarse y de nuevo en posicion de espera",,,
